    7

U      0.0000000000   0.0000000000   0.0000000000
F      0.0000000000   0.0000000000   2.0775205092
F      0.0000000000   0.0000000000  -2.0775205092
F      2.0775205092   0.0000000000   0.0000000000
F     -2.0775205092   0.0000000000   0.0000000000
F      0.0000000000   2.0775205092   0.0000000000
F      0.0000000000  -2.0775205092   0.0000000000
